<svg xmlns="http://www.w3.org/2000/svg" width="12" height="12" viewBox="0 0 12 12">
    <g fill="none" fill-rule="evenodd">
        <g fill="#EFEFEF">
            <g>
                <g>
                    <g>
                        <path d="M10.403 0h-3.09c-.32 0-.58.26-.58.579 0 .32.26.58.58.58h1.691L3.45 6.712c-.224.226-.224.592.001.818.226.225.591.226.818 0L9.823 1.98v1.69c0 .32.261.58.58.58.32 0 .579-.26.579-.58V.58c0-.32-.26-.579-.579-.579" transform="translate(-444 -619) translate(285 510) translate(49 58) translate(110.275 51.53)"/>
                        <path d="M10.431 5.31c-.313 0-.569.256-.569.57v3.983H1.138V1.138h3.983c.313 0 .57-.256.57-.569 0-.315-.257-.568-.57-.568H.569c-.315 0-.57.253-.57.568v9.862c0 .316.255.57.57.57h9.862c.314 0 .569-.254.569-.57V5.88c0-.314-.255-.57-.569-.57" transform="translate(-444 -619) translate(285 510) translate(49 58) translate(110.275 51.53)"/>
                    </g>
                </g>
            </g>
        </g>
    </g>
</svg>
