<svg xmlns="http://www.w3.org/2000/svg" width="239" height="117" viewBox="0 0 239 117">
    <g fill="none" fill-rule="evenodd">
        <g fill-rule="nonzero">
            <g>
                <g>
                    <g>
                        <path fill="#003556" d="M35.928 5.079L35.928 4.451 30.3 4.451 30.419 0.015 29.847 0 29.767 4.451 24.807 4.451 24.807 5.079 29.759 5.079 29.704 8.327 26.508 8.327 26.508 8.955 29.696 8.955 29.569 16.302 29.982 16.31 30.181 8.955 33.328 8.955 33.328 8.327 30.197 8.327 30.284 5.079z" transform="translate(-708 -869) translate(708 632) matrix(-1 0 0 1 239 237) translate(168 20)"/>
                        <path fill="#0E5378" d="M6.843 18.027L69.289 18.027 68.793 72.106 7.34 72.106z" transform="translate(-708 -869) translate(708 632) matrix(-1 0 0 1 239 237) translate(168 20)"/>
                        <path fill="#0D5475" d="M17.008 42.062L14.696 42.062 14.542 40.345 17.108 40.407zM17.831 36.912L14.741 36.912 14.542 35.195 17.964 35.253zM16.122 32.619L13.035 32.619 12.831 30.903 16.253 30.96zM19.574 30.044L17.263 30.044 17.108 28.327 19.675 28.382zM18.684 27.469L15.6 27.469 15.398 25.752 18.819 25.811zM31.517 60.088L28.437 60.088 28.229 58.372 31.651 58.43zM31.513 55.796L28.436 55.796 28.229 54.08 31.651 54.14zM30.695 50.646L28.386 50.646 28.229 48.929 30.795 48.988zM35.827 45.496L33.516 45.496 33.361 43.779 35.928 43.834zM59.744 31.761L56.66 31.761 56.458 30.044 59.88 30.103zM64.908 34.336L62.599 34.336 62.446 32.619 65.012 32.676zM65.733 40.345L62.652 40.345 62.446 37.77 65.867 37.854zM65.731 46.354L62.651 46.354 62.446 44.637 65.867 44.697zM51.184 65.239L48.108 65.239 47.904 62.664 51.325 62.747zM50.369 60.947L48.062 60.947 47.904 59.23 50.47 59.289zM48.627 56.655L45.548 56.655 45.337 54.938 48.759 54.999zM14.436 61.805L12.131 61.805 11.976 60.088 14.542 60.146zM16.153 66.956L13.84 66.956 13.687 65.239 16.253 65.301zM34.942 24.894L31.853 24.894 31.651 23.177 35.072 23.234zM33.227 21.46L30.145 21.46 29.94 19.743 33.361 19.799zM46.917 43.779L43.831 43.779 43.627 42.062 47.048 42.119zM46.059 37.77L42.98 37.77 42.771 36.053 46.193 36.104zM47.807 34.336L45.49 34.336 45.337 32.619 47.904 32.676zM59.744 64.381L56.668 64.381 56.458 62.664 59.88 62.723zM63.166 67.814L60.082 67.814 59.88 66.097 63.301 66.156z" transform="translate(-708 -869) translate(708 632) matrix(-1 0 0 1 239 237) translate(168 20)"/>
                        <path fill="#127C93" d="M65.012 18.027L65.48 72.075 68.745 72.106 69.289 18.027z" transform="translate(-708 -869) translate(708 632) matrix(-1 0 0 1 239 237) translate(168 20)"/>
                        <path fill="#003556" d="M7.699 96.142L0.918 96.142 0.855 17.168 7.636 17.168z" transform="translate(-708 -869) translate(708 632) matrix(-1 0 0 1 239 237) translate(168 20)"/>
                        <path fill="#127C93" d="M71 15.451L0 15.451 0.139 17.168 70.869 17.168z" transform="translate(-708 -869) translate(708 632) matrix(-1 0 0 1 239 237) translate(168 20)"/>
                        <path fill="#003556" d="M0 15.451L0.144 17.168 6.843 17.168 6.372 15.451z" transform="translate(-708 -869) translate(708 632) matrix(-1 0 0 1 239 237) translate(168 20)"/>
                        <path fill="#12748C" d="M65.867 23.327L69.289 23.327 69.282 23.748 65.867 23.885zM65.867 27.628L69.289 27.628 69.289 28.048 65.875 28.169zM65.867 31.928L69.289 31.928 69.289 32.349 65.867 32.452zM65.867 36.229L69.289 36.229 69.289 36.65 65.875 36.736zM65.867 40.525L69.289 40.525 69.282 40.946 65.867 41.023zM65.867 45.68L69.289 45.68 69.281 46.109 65.867 46.169zM65.867 49.981L69.289 49.981 69.289 50.41 65.867 50.453zM65.867 54.281L69.289 54.281 69.289 54.711 65.867 54.736zM65.867 58.578L69.289 58.578 69.281 59.007 65.867 59.024zM65.867 62.878L69.289 62.878 69.289 63.308 65.876 63.308zM65.867 68.024L69.289 68.024 69.289 68.462 65.867 68.445z" transform="translate(-708 -869) translate(708 632) matrix(-1 0 0 1 239 237) translate(168 20)"/>
                        <path fill="#127C93" d="M6.843 18.027L7.311 72.106 10.55 72.106 11.976 18.027z" transform="translate(-708 -869) translate(708 632) matrix(-1 0 0 1 239 237) translate(168 20)"/>
                        <path fill="#12748C" d="M6.843 24.078L11.976 24.078 11.961 24.731 6.843 24.851zM6.843 29.126L6.843 28.388 11.976 28.388 11.952 29.031zM6.843 33.401L6.843 32.697 11.976 32.697 11.96 33.332zM7.706 37.675L7.699 37.006 11.976 37.006 11.962 37.633zM7.706 41.95L7.699 41.315 11.976 41.315 11.961 41.925zM7.699 47.079L7.699 46.487 11.976 46.487 11.961 47.079zM7.699 51.35L7.699 50.783 11.976 50.783 11.96 51.367zM7.699 55.608L7.699 55.075 11.976 55.075 11.96 55.659zM7.699 59.874L7.699 59.376 11.976 59.376 11.967 59.943zM7.706 64.144L7.699 63.672 11.12 63.672 11.106 64.23zM7.706 68.402L11.106 68.514 11.12 67.973 7.699 67.973z" transform="translate(-708 -869) translate(708 632) matrix(-1 0 0 1 239 237) translate(168 20)"/>
                        <path fill="#127C93" d="M59.563 66.956L49.068 66.956 48.759 47.212 59.88 47.212z" transform="translate(-708 -869) translate(708 632) matrix(-1 0 0 1 239 237) translate(168 20)"/>
                        <path fill="#003556" d="M49.906 66.097L49.614 48.929 59.024 48.929 58.733 66.097z" transform="translate(-708 -869) translate(708 632) matrix(-1 0 0 1 239 237) translate(168 20)"/>
                        <path fill="#127C93" d="M49.614 56.655H59.024V57.655H49.614zM43.318 66.956L32.815 66.956 32.506 47.212 43.627 47.212z" transform="translate(-708 -869) translate(708 632) matrix(-1 0 0 1 239 237) translate(168 20)"/>
                        <path fill="#003556" d="M33.653 66.097L33.361 48.929 42.771 48.929 42.488 66.097z" transform="translate(-708 -869) translate(708 632) matrix(-1 0 0 1 239 237) translate(168 20)"/>
                        <path fill="#127C93" d="M33.361 56.655H42.771V57.655H33.361zM27.057 66.956L16.569 66.956 16.253 47.212 27.373 47.212z" transform="translate(-708 -869) translate(708 632) matrix(-1 0 0 1 239 237) translate(168 20)"/>
                        <path fill="#7DE213" d="M17.392 66.097L17.108 48.929 26.518 48.929 26.235 66.097z" transform="translate(-708 -869) translate(708 632) matrix(-1 0 0 1 239 237) translate(168 20)"/>
                        <path fill="#127C93" d="M17.108 56.655H26.518V57.655H17.108zM27.065 42.062L16.569 42.062 16.253 22.319 27.373 22.319z" transform="translate(-708 -869) translate(708 632) matrix(-1 0 0 1 239 237) translate(168 20)"/>
                        <path fill="#7DE213" d="M17.392 41.204L17.108 24.035 26.518 24.035 26.235 41.204z" transform="translate(-708 -869) translate(708 632) matrix(-1 0 0 1 239 237) translate(168 20)"/>
                        <path fill="#127C93" d="M17.108 32.619H26.518V33.619H17.108zM43.318 42.062L32.822 42.062 32.506 22.319 43.627 22.319z" transform="translate(-708 -869) translate(708 632) matrix(-1 0 0 1 239 237) translate(168 20)"/>
                        <path fill="#7DE213" d="M33.653 41.204L33.361 24.035 42.771 24.035 42.488 41.204z" transform="translate(-708 -869) translate(708 632) matrix(-1 0 0 1 239 237) translate(168 20)"/>
                        <path fill="#127C93" d="M33.361 32.619H42.771V33.619H33.361zM59.563 42.062L49.068 42.062 48.759 22.319 59.88 22.319z" transform="translate(-708 -869) translate(708 632) matrix(-1 0 0 1 239 237) translate(168 20)"/>
                        <path fill="#003556" d="M49.906 41.204L49.614 24.035 59.024 24.035 58.733 41.204z" transform="translate(-708 -869) translate(708 632) matrix(-1 0 0 1 239 237) translate(168 20)"/>
                        <path fill="#127C93" d="M49.614 32.619H59.024V33.619H49.614z" transform="translate(-708 -869) translate(708 632) matrix(-1 0 0 1 239 237) translate(168 20)"/>
                        <path fill="#7DE213" d="M49.614 33.478L58.169 33.516 58.043 41.204 49.733 41.204z" transform="translate(-708 -869) translate(708 632) matrix(-1 0 0 1 239 237) translate(168 20)"/>
                        <path fill="#0E5378" d="M19.439 15.451L5.36 15.451 5.133 7.726 19.675 7.726z" transform="translate(-708 -869) translate(708 632) matrix(-1 0 0 1 239 237) translate(168 20)"/>
                        <path fill="#003556" d="M8.533 7.726L8.554 15.451 5.269 15.451 5.133 7.726z" transform="translate(-708 -869) translate(708 632) matrix(-1 0 0 1 239 237) translate(168 20)"/>
                        <path fill="#127C93" d="M20.288 6.867L5.383 6.867 5.133 5.15 20.53 5.15z" transform="translate(-708 -869) translate(708 632) matrix(-1 0 0 1 239 237) translate(168 20)"/>
                        <path fill="#003556" d="M4.277 5.15L8.183 5.15 8.554 6.867 4.69 6.867zM43.964 9.442c1 2.844.508 5.15-1.095 5.15s-3.722-2.29-4.714-5.15c-.992-2.858-.516-5.15 1.087-5.15s3.722 2.321 4.722 5.15z" transform="translate(-708 -869) translate(708 632) matrix(-1 0 0 1 239 237) translate(168 20)"/>
                        <path fill="#003556" d="M43.733 11.159L47.904 7.93 46.598 5.15 45.646 5.687 45.966 6.428 46.623 6.377 47.452 7.93 43.627 10.477zM38.191 4.292s-2.373 2.095-.957 6.223c1.582 4.592 5.537 4.059 5.537 4.059l-4.58-10.282z" transform="translate(-708 -869) translate(708 632) matrix(-1 0 0 1 239 237) translate(168 20)"/>
                        <path fill="#003556" d="M38.732 11.159L37.639 15.451 38.418 15.451 39.349 12.225zM41.06 12.876L41.6 15.451 41.916 15.451 41.485 12.876z" transform="translate(-708 -869) translate(708 632) matrix(-1 0 0 1 239 237) translate(168 20)"/>
                        <path fill="#105E80" d="M69.25 72.106L7.699 72.106 7.893 97 69.289 97z" transform="translate(-708 -869) translate(708 632) matrix(-1 0 0 1 239 237) translate(168 20)"/>
                        <path fill="#127C93" d="M69.189 72.965L6.843 72.965 6.843 72.106 69.289 72.106z" transform="translate(-708 -869) translate(708 632) matrix(-1 0 0 1 239 237) translate(168 20)"/>
                        <path fill="#003556" d="M12.059 77.257L30.795 77.257 30.56 92.708 11.976 92.708z" transform="translate(-708 -869) translate(708 632) matrix(-1 0 0 1 239 237) translate(168 20)"/>
                        <path fill="#0E5378" d="M30.795 76.398l-.25 16.31H11.12l.084-16.31h19.591zm-.682 15.856l.053-3.551h-6.007l-.076 3.551h6.03zm.06-3.778l.068-4.983H24.28l-.114 4.983h6.007zm.076-5.32l.099-6.312h-5.94l-.15 6.313h5.991zm-6.485 9.098l.053-3.551H17.22l.06 3.551h6.485zm.06-3.778l.077-4.983h-6.766l.084 4.983h6.606zm.084-5.32L24 76.845h-6.97l.099 6.313h6.78zm-6.947 9.098l-.084-3.551h-5.309v3.551h5.393zm-.091-3.778l-.122-4.983h-5.142v4.983h5.264zm-.13-5.32l-.151-6.312h-4.945l-.038 6.313h5.135z" transform="translate(-708 -869) translate(708 632) matrix(-1 0 0 1 239 237) translate(168 20)"/>
                        <path fill="#003556" d="M45.413 77.257L64.157 77.257 63.921 92.708 45.337 92.708z" transform="translate(-708 -869) translate(708 632) matrix(-1 0 0 1 239 237) translate(168 20)"/>
                        <path fill="#0E5378" d="M65.012 76.398l-.25 16.31H45.337l.091-16.31h19.584zm-.683 15.856l.054-3.551h-6.008l-.075 3.551h6.03zm.061-3.778l.076-4.983h-5.962l-.121 4.983h6.007zm.076-5.32l.099-6.312h-5.909l-.144 6.313h5.954zm-6.485 9.098l.053-3.551h-6.599l.061 3.551h6.485zm.06-3.778l.077-4.983h-6.766l.083 4.983h6.607zm.084-5.32l.091-6.312h-6.97l.068 6.313h6.811zm-6.94 9.098l-.09-3.551h-5.31v3.551h5.4zm-.098-3.778l-.122-4.983h-5.142v4.983h5.264zm-.13-5.32l-.151-6.312H45.86v6.313h5.097zM43.184 97L33.804 97 33.361 76.398 43.627 76.398z" transform="translate(-708 -869) translate(708 632) matrix(-1 0 0 1 239 237) translate(168 20)"/>
                        <path fill="#7DE213" d="M41.585 92.708L34.547 92.708 34.217 77.257 41.916 77.257z" transform="translate(-708 -869) translate(708 632) matrix(-1 0 0 1 239 237) translate(168 20)"/>
                    </g>
                    <g>
                        <path fill="#003556" d="M11.908 117L.851 117 .851 17.934 11.908 18.042zM26.368 6.117L26.291 5.357 19.866 5.357 19.446.015 18.789 0 19.27 5.357 13.609 5.357 13.686 6.117 19.339 6.117 19.683 10.03 16.031 10.03 16.115 10.79 19.752 10.79 20.539 19.627 21.005 19.642 20.302 10.79 23.9 10.79 23.816 10.03 20.241 10.03 19.927 6.117z" transform="translate(-708 -869) translate(708 632) matrix(-1 0 0 1 239 237) translate(98)"/>
                        <path fill="#0F5B86" d="M70.2 91.38L71.659 46.024 73.149 18.788 9.356 18.788 10.553 91.38z" transform="translate(-708 -869) translate(708 632) matrix(-1 0 0 1 239 237) translate(98)"/>
                        <path fill="#0D5A83" d="M65.363 56.365L62.3 56.365 62.092 54.657 65.494 54.716zM60.256 54.657L57.194 54.657 56.989 52.095 60.391 52.176zM65.362 48.679L62.291 48.679 62.092 46.971 65.494 47.027zM67.065 46.117L63.997 46.117 63.793 44.409 67.195 44.464zM64.506 41.847L61.447 41.847 61.241 40.139 64.644 40.191zM63.66 38.431L60.594 38.431 60.391 35.869 63.793 35.959zM66.207 32.453L63.141 32.453 62.943 30.745 66.345 30.803zM62.812 28.182L59.744 28.182 59.54 26.474 62.943 26.537zM34.774 68.321L32.471 68.321 32.322 66.613 34.874 66.67zM37.286 64.051L34.224 64.051 34.023 62.343 37.425 62.402zM33.073 58.927L30.773 58.927 30.621 57.219 33.172 57.272zM36.44 54.657L33.379 54.657 33.172 52.949 36.575 53.01zM36.444 49.533L33.374 49.533 33.172 47.825 36.575 47.884zM37.285 46.971L34.229 46.971 34.023 45.263 37.425 45.319zM31.34 42.701L28.277 42.701 28.069 40.139 31.471 40.227zM21.166 76.861L18.868 76.861 18.713 75.153 21.264 75.209zM16.874 71.737L13.816 71.737 13.609 70.029 17.011 70.088zM20.281 68.321L17.215 68.321 17.011 66.613 20.414 66.673zM48.344 76.007L45.285 76.007 45.08 74.299 48.483 74.356zM51.752 70.883L48.686 70.883 48.483 68.321 51.885 68.411zM52.631 67.467L50.337 67.467 50.184 65.759 52.736 65.815zM56.851 74.299L53.796 74.299 53.586 72.591 56.989 72.646zM53.449 78.569L50.382 78.569 50.184 76.861 53.586 76.92zM59.408 80.277L56.341 80.277 56.138 78.569 59.54 78.623zM49.237 34.161L46.933 34.161 46.782 32.453 49.333 32.507zM46.654 29.036L43.587 29.036 43.379 27.328 46.782 27.383zM50.931 23.058L48.635 23.058 48.483 21.35 51.034 21.413zM27.117 25.62L24.822 25.62 24.667 23.912 27.218 23.966zM22.861 20.496L20.568 20.496 20.414 18.788 22.966 18.852zM18.573 22.204L15.512 22.204 15.31 20.496 18.713 20.55zM53.453 48.679L50.387 48.679 50.184 46.117 53.586 46.206zM50.048 45.263L46.985 45.263 46.782 43.555 50.184 43.613zM27.933 80.277L24.875 80.277 24.667 78.569 28.069 78.624z" transform="translate(-708 -869) translate(708 632) matrix(-1 0 0 1 239 237) translate(98)"/>
                        <path fill="#127C93" d="M74 17.08L0 17.08 0.139 18.788 73.861 18.788z" transform="translate(-708 -869) translate(708 632) matrix(-1 0 0 1 239 237) translate(98)"/>
                        <path fill="#003556" d="M0 17.08L0.144 18.788 10.207 18.788 9.734 17.08z" transform="translate(-708 -869) translate(708 632) matrix(-1 0 0 1 239 237) translate(98)"/>
                        <path fill="#125D81" d="M70.339 91.38L66.345 91.38 67.838 18.926 73.149 18.788z" transform="translate(-708 -869) translate(708 632) matrix(-1 0 0 1 239 237) translate(98)"/>
                        <path fill="#0D5A83" d="M65.757 91.38L67.195 18.926 65.757 18.788 64.644 91.38z" transform="translate(-708 -869) translate(708 632) matrix(-1 0 0 1 239 237) translate(98)"/>
                        <path fill="#125D81" d="M9.356 18.904L10.47 92.187 14.46 92.234 14.294 18.788z" transform="translate(-708 -869) translate(708 632) matrix(-1 0 0 1 239 237) translate(98)"/>
                        <path fill="#126D81" d="M29.848 81.131L21.186 81.131 20.414 58.927 30.621 58.927z" transform="translate(-708 -869) translate(708 632) matrix(-1 0 0 1 239 237) translate(98)"/>
                        <path fill="#003556" d="M21.955 80.277L21.264 59.781 29.77 59.781 29.08 80.277z" transform="translate(-708 -869) translate(708 632) matrix(-1 0 0 1 239 237) translate(98)"/>
                        <path fill="#126D81" d="M21.264 70.029L29.77 70.07 29.77 70.883 21.264 70.883z" transform="translate(-708 -869) translate(708 632) matrix(-1 0 0 1 239 237) translate(98)"/>
                        <path fill="#126D81" d="M25.367 59.781H26.367V81.131H25.367z" transform="translate(-708 -869) translate(708 632) matrix(-1 0 0 1 239 237) translate(98)"/>
                        <path fill="#126D81" d="M25.353 72.053L25.353 72.053 25.354 80.406 25.354 80.406z" transform="translate(-708 -869) translate(708 632) matrix(-1 0 0 1 239 237) translate(98) rotate(-88.282 25.354 76.23)"/>
                        <path fill="#126D81" d="M20.414 64.755H29.770000000000003V65.755H20.414zM61.327 81.131L52.65 81.131 51.885 58.927 62.092 58.927z" transform="translate(-708 -869) translate(708 632) matrix(-1 0 0 1 239 237) translate(98)"/>
                        <path fill="#7DE213" d="M53.425 80.277L52.736 59.781 61.241 59.781 60.552 80.277z" transform="translate(-708 -869) translate(708 632) matrix(-1 0 0 1 239 237) translate(98)"/>
                        <path fill="#126D81" d="M52.736 70.029L61.241 70.07 61.241 70.883 52.736 70.883z" transform="translate(-708 -869) translate(708 632) matrix(-1 0 0 1 239 237) translate(98)"/>
                        <path fill="#126D81" d="M56.838 59.781H57.838V81.131H56.838z" transform="translate(-708 -869) translate(708 632) matrix(-1 0 0 1 239 237) translate(98)"/>
                        <path fill="#126D81" d="M56.771 72.229L56.771 72.229 56.772 80.579 56.772 80.579z" transform="translate(-708 -869) translate(708 632) matrix(-1 0 0 1 239 237) translate(98) rotate(-88.16 56.772 76.404)"/>
                        <path fill="#126D81" d="M51.885 64.755H61.241V65.755H51.885z" transform="translate(-708 -869) translate(708 632) matrix(-1 0 0 1 239 237) translate(98)"/>
                        <path fill="#08506C" d="M20.1 58.927h-.537v-2.073c1.577-.928 3.332-1.389 5.104-1.34l-4.568 3.413z" transform="translate(-708 -869) translate(708 632) matrix(-1 0 0 1 239 237) translate(98)"/>
                        <path fill="#126D81" d="M30.62 56.936c-3.512-1.983-7.185-1.815-11.057 0v1.991h11.058v-1.991zM45.158 81.131L36.497 81.131 35.724 58.927 45.931 58.927z" transform="translate(-708 -869) translate(708 632) matrix(-1 0 0 1 239 237) translate(98)"/>
                        <path fill="#7DE213" d="M37.265 80.277L36.575 59.781 45.08 59.781 44.39 80.277z" transform="translate(-708 -869) translate(708 632) matrix(-1 0 0 1 239 237) translate(98)"/>
                        <path fill="#126D81" d="M36.575 70.029L45.08 70.07 45.08 70.883 36.575 70.883z" transform="translate(-708 -869) translate(708 632) matrix(-1 0 0 1 239 237) translate(98)"/>
                        <path fill="#126D81" d="M40.677 59.781H41.677V81.131H40.677z" transform="translate(-708 -869) translate(708 632) matrix(-1 0 0 1 239 237) translate(98)"/>
                        <path fill="#126D81" d="M41.026 72.045L41.026 72.045 41.027 80.398 41.027 80.398z" transform="translate(-708 -869) translate(708 632) matrix(-1 0 0 1 239 237) translate(98) rotate(-88.282 41.026 76.221)"/>
                        <path fill="#126D81" d="M36.575 64.755H45.931000000000004V65.755H36.575z" transform="translate(-708 -869) translate(708 632) matrix(-1 0 0 1 239 237) translate(98)"/>
                        <path fill="#08506C" d="M36.254 58.927h-.53v-2.073c1.576-.93 3.331-1.39 5.104-1.34l-4.574 3.413z" transform="translate(-708 -869) translate(708 632) matrix(-1 0 0 1 239 237) translate(98)"/>
                        <path fill="#126D81" d="M46.782 56.936c-3.513-1.983-7.186-1.815-11.058 0v1.991h11.058v-1.991z" transform="translate(-708 -869) translate(708 632) matrix(-1 0 0 1 239 237) translate(98)"/>
                        <path fill="#08506C" d="M52.417 58.927h-.532v-2.072c1.577-.935 3.332-1.396 5.104-1.34l-4.572 3.412z" transform="translate(-708 -869) translate(708 632) matrix(-1 0 0 1 239 237) translate(98)"/>
                        <path fill="#126D81" d="M62.943 56.936c-3.513-1.983-7.186-1.815-11.058 0v1.991h11.058v-1.991zM29.354 46.971L19.979 46.971 19.563 29.036 29.77 29.036z" transform="translate(-708 -869) translate(708 632) matrix(-1 0 0 1 239 237) translate(98)"/>
                        <path fill="#7DE213" d="M20.764 46.971L20.414 30.745 28.92 30.745 28.562 46.971z" transform="translate(-708 -869) translate(708 632) matrix(-1 0 0 1 239 237) translate(98)"/>
                        <path fill="#126D81" d="M24.974 38.061L24.974 38.061 24.974 46.696 24.974 46.696z" transform="translate(-708 -869) translate(708 632) matrix(-1 0 0 1 239 237) translate(98) rotate(-88.83 24.974 42.379)"/>
                        <path fill="#126D81" d="M20.304 36.552L29.509 36.553 29.509 36.553 20.304 36.552z" transform="translate(-708 -869) translate(708 632) matrix(-1 0 0 1 239 237) translate(98) rotate(-1.34 24.906 36.553)"/>
                        <path fill="#126D81" d="M16.462 38.415L33.427 38.415 33.427 38.415 16.462 38.415z" transform="translate(-708 -869) translate(708 632) matrix(-1 0 0 1 239 237) translate(98) rotate(-89.82 24.945 38.415)"/>
                        <path fill="#126D81" d="M45.515 46.971L36.14 46.971 35.724 29.036 45.931 29.036z" transform="translate(-708 -869) translate(708 632) matrix(-1 0 0 1 239 237) translate(98)"/>
                        <path fill="#003556" d="M36.932 46.971L36.575 30.745 45.08 30.745 44.723 46.971z" transform="translate(-708 -869) translate(708 632) matrix(-1 0 0 1 239 237) translate(98)"/>
                        <path fill="#126D81" d="M40.784 38.057L40.784 38.057 40.784 46.692 40.784 46.692z" transform="translate(-708 -869) translate(708 632) matrix(-1 0 0 1 239 237) translate(98) rotate(-88.83 40.784 42.374)"/>
                        <path fill="#126D81" d="M36.118 36.553L45.324 36.553 45.324 36.553 36.118 36.553z" transform="translate(-708 -869) translate(708 632) matrix(-1 0 0 1 239 237) translate(98) rotate(-1.34 40.721 36.553)"/>
                        <path fill="#126D81" d="M32.269 38.408L49.234 38.408 49.234 38.408 32.269 38.408z" transform="translate(-708 -869) translate(708 632) matrix(-1 0 0 1 239 237) translate(98) rotate(-89.82 40.752 38.408)"/>
                        <path fill="#126D81" d="M61.676 46.971L52.301 46.971 51.885 29.036 62.092 29.036z" transform="translate(-708 -869) translate(708 632) matrix(-1 0 0 1 239 237) translate(98)"/>
                        <path fill="#003556" d="M53.086 46.971L52.736 30.745 61.241 30.745 60.884 46.971z" transform="translate(-708 -869) translate(708 632) matrix(-1 0 0 1 239 237) translate(98)"/>
                        <path fill="#126D81" d="M56.586 38.052L56.586 38.052 56.586 46.687 56.586 46.687z" transform="translate(-708 -869) translate(708 632) matrix(-1 0 0 1 239 237) translate(98) rotate(-88.83 56.586 42.37)"/>
                        <path fill="#126D81" d="M51.925 36.554L61.131 36.554 61.131 36.554 51.925 36.554z" transform="translate(-708 -869) translate(708 632) matrix(-1 0 0 1 239 237) translate(98) rotate(-1.34 56.528 36.554)"/>
                        <path fill="#126D81" d="M48.076 38.415L65.041 38.415 65.041 38.415 48.076 38.415z" transform="translate(-708 -869) translate(708 632) matrix(-1 0 0 1 239 237) translate(98) rotate(-89.82 56.558 38.415)"/>
                        <path fill="#0F5B86" d="M60.074 17.08L41.144 17.08 40.828 10.248 60.391 10.248z" transform="translate(-708 -869) translate(708 632) matrix(-1 0 0 1 239 237) translate(98)"/>
                        <path fill="#003556" d="M48.422 10.248L48.483 17.08 41.141 17.08 40.828 10.248z" transform="translate(-708 -869) translate(708 632) matrix(-1 0 0 1 239 237) translate(98)"/>
                        <path fill="#127C93" d="M61.819 10.248L40.25 10.248 39.977 8.54 62.092 8.54z" transform="translate(-708 -869) translate(708 632) matrix(-1 0 0 1 239 237) translate(98)"/>
                        <path fill="#003556" d="M39.977 8.54L48.483 8.54 48.483 10.248 40.247 10.127z" transform="translate(-708 -869) translate(708 632) matrix(-1 0 0 1 239 237) translate(98)"/>
                        <path fill="#0E5473" d="M69.566 116.146L10.207 116.146 10.207 87.109 70.598 87.109z" transform="translate(-708 -869) translate(708 632) matrix(-1 0 0 1 239 237) translate(98)"/>
                        <path fill="#0D5475" d="M30.519 98.212L28.221 98.212 28.069 96.504 30.621 96.562zM22.016 99.066L19.712 99.066 19.563 98.212 22.115 98.239zM18.609 98.212L16.317 98.212 16.161 96.504 18.713 96.553zM23.716 88.818L21.419 88.818 21.264 87.964 23.816 87.994zM61.989 99.066L59.695 99.066 59.54 97.358 62.092 97.417zM52.636 99.066L50.334 99.066 50.184 97.358 52.736 97.415zM48.378 101.628L46.083 101.628 45.931 100.774 48.483 100.806zM46.684 105.898L44.38 105.898 44.23 104.19 46.782 104.25zM44.129 107.606L41.83 107.606 41.678 105.898 44.23 105.956zM39.873 91.38L37.578 91.38 37.425 90.526 39.977 90.558zM41.574 92.234L39.279 92.234 39.126 91.38 41.678 91.406zM38.178 95.65L35.874 95.65 35.724 93.942 38.276 94.002zM34.78 97.358L32.474 97.358 32.322 95.65 34.874 95.708zM59.443 95.65L57.142 95.65 56.989 94.796 59.54 94.822zM52.635 93.942L50.339 93.942 50.184 93.088 52.736 93.113zM50.085 89.672L47.781 89.672 47.632 88.818 50.184 88.845zM50.927 113.584L48.634 113.584 48.483 111.876 51.034 111.924zM58.585 115.292L56.29 115.292 56.138 114.438 58.69 114.465zM63.688 106.752L61.394 106.752 61.241 105.898 63.793 105.925zM62.841 103.336L60.543 103.336 60.391 101.628 62.943 101.686zM39.021 112.73L36.728 112.73 36.575 111.876 39.126 111.903zM35.62 111.022L33.325 111.022 33.172 110.168 35.724 110.2zM33.071 106.752L30.772 106.752 30.621 105.044 33.172 105.102z" transform="translate(-708 -869) translate(708 632) matrix(-1 0 0 1 239 237) translate(98)"/>
                        <path fill="#127C93" d="M70.598 87.704L9.657 87.964 9.356 86.255 70.598 86.697z" transform="translate(-708 -869) translate(708 632) matrix(-1 0 0 1 239 237) translate(98)"/>
                        <path fill="#125A83" d="M10.207 116.146L10.207 87.964 14.46 87.964 13.657 116.146zM70.598 87.109L69.546 116.146 66.345 116.146 66.345 87.133z" transform="translate(-708 -869) translate(708 632) matrix(-1 0 0 1 239 237) translate(98)"/>
                        <path fill="#127C93" d="M30.073 116.146L18.409 116.146 17.862 93.088 30.621 93.088z" transform="translate(-708 -869) translate(708 632) matrix(-1 0 0 1 239 237) translate(98)"/>
                        <path fill="#003556" d="M28.52 111.876L19.963 111.876 19.563 94.796 28.92 94.796zM43.21 106.676l-.096 4.346h-3.751l.074-4.346h3.772zm-8.122 0l.088 4.346h3.847v-4.346h-3.935zm-.104-5.14l.096 4.832h3.958v-4.832h-4.054zm4.512 0l-.089 4.832h3.773l.096-4.832h-3.78zm.088-5.032l-.081 4.723h3.78l.096-4.723h-3.795zm-4.71 0l.103 4.723h4.09v-4.723h-4.193z" transform="translate(-708 -869) translate(708 632) matrix(-1 0 0 1 239 237) translate(98)"/>
                        <path fill="#127C93" d="M39.883 106.676L39.867 111.022 40.177 111.022 40.253 106.676 44.116 106.676 44.124 106.368 40.261 106.368 40.351 101.536 44.222 101.536 44.23 101.227 40.359 101.227 40.442 96.504 39.928 96.504 39.913 101.227 35.724 101.227 35.732 101.536 39.905 101.536 39.883 106.368 35.83 106.368 35.838 106.676z" transform="translate(-708 -869) translate(708 632) matrix(-1 0 0 1 239 237) translate(98)"/>
                        <path fill="#127C93" d="M35.41 106.464l.09 4.25h8.11l.099-4.25v-.302l.098-4.724v-.302l.099-4.62H35.19l.106 4.62v.302l.099 4.724.015.302zm9.67-11.668l-.492 17.08H34.53l-.508-17.08H45.08z" transform="translate(-708 -869) translate(708 632) matrix(-1 0 0 1 239 237) translate(98)"/>
                        <path fill="#003556" d="M58.483 106.676l-.089 4.346H54.64l.074-4.346h3.769zm-8.092 0l.096 4.346h3.843v-4.346h-3.94zm-.104-5.14l.096 4.832h3.961v-4.832h-4.057zm4.516 0l-.09 4.832h3.777l.096-4.832h-3.783zm.096-5.032l-.089 4.723h3.784l.096-4.723h-3.791zm-4.715 0l.096 4.723h4.094v-4.723h-4.19z" transform="translate(-708 -869) translate(708 632) matrix(-1 0 0 1 239 237) translate(98)"/>
                        <path fill="#127C93" d="M54.342 106.676L54.327 111.022 54.645 111.022 54.72 106.676 58.576 106.676 58.584 106.368 54.72 106.368 54.811 101.536 58.682 101.536 58.69 101.227 54.819 101.227 54.909 96.504 54.388 96.504 54.373 101.227 50.184 101.227 50.191 101.536 54.365 101.536 54.342 106.368 50.29 106.368 50.297 106.676z" transform="translate(-708 -869) translate(708 632) matrix(-1 0 0 1 239 237) translate(98)"/>
                        <path fill="#127C93" d="M50.707 106.464l.099 4.25h8.12l.091-4.25v-.302l.099-4.724v-.302l.098-4.62h-8.72l.1 4.62v.302l.098 4.724.015.302zm9.684-11.668l-.493 17.08H49.827l-.494-17.08h11.058z" transform="translate(-708 -869) translate(708 632) matrix(-1 0 0 1 239 237) translate(98)"/>
                    </g>
                    <g>
                        <path fill="#7DE213" d="M31.411 61.605l.085 3.23-2.38-.135-.077-3.201 2.372.106zm-2.526-5.722l.146 5.284 2.372.098-.161-5.398-2.357.016zm-.138-5.413l.138 5.095h2.31l-.146-5.095h-2.302zm-2.557 0l.2 5.095h2.172l-.139-5.095H26.19zm.215 5.413l.208 5.51v-.317l2.095.09-.139-5.283h-2.164zm.208 5.51l.131 3.178 2.049.114-.085-3.201-2.095-.09zm-8.278 1.027l.13 4.144 3.851.159-.115-4.212-3.866-.091zM18.157 57l.162 5.17 3.905.099-.139-5.171L18.157 57zm-.208-6.477l.2 6.235 3.928.098-.161-6.333h-3.967zm-3.558 0l.309 6.145 3.203.083-.2-6.228h-3.312zm.324 6.386l.262 5.179 3.08.075L17.896 57l-3.181-.09zm.277 5.428l.208 4.099 3.011.12-.13-4.144-3.089-.075zm-8.371-1.238l.2 3.208 1.471.083-.208-3.291H6.621zm1.71 0l.223 3.299 1.663.098-.246-3.405-1.64.008zm-.701-10.63l.308 4.674 1.625.136v.241L9.2 50.47H7.63zM6.25 55.25l.355 5.6h1.463l-.37-5.51-1.448-.09zm1.248-4.78h-1.54L6.236 55l1.448.114-.308-4.643h.123zm.454 4.923l.362 5.458h1.64l-.377-5.33-1.625-.128z" transform="translate(-708 -869) translate(708 632) matrix(-1 0 0 1 239 237) translate(0 45)"/>
                        <path fill="#055F7B" d="M31.084 49.614l.412 15.398-5.402-.31-.557-15.088h5.547zm-.073 14.884l-.08-3.237v-.325l-.151-5.408v-.317l-.137-5.105h-4.614l.188 5.105v.317l.195 5.521.123 3.184 1.924.114h.303l2.25.15z" transform="translate(-708 -869) translate(708 632) matrix(-1 0 0 1 239 237) translate(0 45)"/>
                        <path fill="#055F7B" d="M31.488 60.662L31.496 60.994 29.083 60.886 29.161 64.157 28.832 64.141 28.746 60.87 26.616 60.778 26.608 60.454 28.738 60.546 28.597 55.146 26.404 55.146 26.388 54.822 28.597 54.822 28.456 49.614 28.621 49.614 28.785 49.614 28.926 54.822 31.316 54.822 31.324 55.146 28.926 55.146 29.075 60.562zM9.35 60.446L9.364 60.706 7.868 60.706 8.072 64.157 7.833 64.141 7.644 60.706 6.31 60.706 6.296 60.446 7.63 60.446 7.293 54.727 5.973 54.601 5.959 54.349 7.279 54.467 6.998 49.622 7.11 49.614 7.229 49.614 7.51 54.491 8.985 54.633 9.006 54.885 7.524 54.751 7.854 60.446z" transform="translate(-708 -869) translate(708 632) matrix(-1 0 0 1 239 237) translate(0 45)"/>
                        <path fill="#055F7B" d="M9.189 49.614l1.026 15.398-4.259-.286-.849-15.112H9.19zm.51 14.85l-.237-3.48v-.255l-.362-5.45-.347-5.163H5.617l.265 4.631v.247l.34 5.727v.254l.192 3.28 1.41.086h.25l1.624.123z" transform="translate(-708 -869) translate(708 632) matrix(-1 0 0 1 239 237) translate(0 45)"/>
                        <path fill="#10707D" d="M23.819 69.611L23.835 70.145 12.769 69.657 13.763 69.289z" transform="translate(-708 -869) translate(708 632) matrix(-1 0 0 1 239 237) translate(0 45)"/>
                        <path fill="#055F7B" d="M22.132 61.515L22.132 61.76 18.172 61.668 18.306 65.867 18.047 65.86 17.913 61.661 14.769 61.584 14.753 61.332 17.906 61.408 17.741 56.169 14.487 56.085 14.471 55.84 17.733 55.924 17.529 49.614 17.78 49.614 17.984 55.932 21.983 56.032 21.991 56.276 17.992 56.177 18.157 61.424z" transform="translate(-708 -869) translate(708 632) matrix(-1 0 0 1 239 237) translate(0 45)"/>
                        <path fill="#055F7B" d="M23.78 66.762L23.835 70.145 13.642 69.719 12.769 50.523 14.17 50.47 14.484 56.658 14.5 56.901 14.5 56.901 14.768 62.117 14.783 62.367 14.996 66.495 18.073 66.617 18.333 66.625 22.292 66.784z" transform="translate(-708 -869) translate(708 632) matrix(-1 0 0 1 239 237) translate(0 45)"/>
                        <path fill="#055F7B" d="M23.537 48.122L23.835 66.699 22.352 66.723 22.235 62.369 22.235 62.12 22.094 56.775 22.086 56.525 21.921 49.979 17.882 49.979 17.631 49.979 14.259 49.979 12.863 50.034 12.769 47.904z" transform="translate(-708 -869) translate(708 632) matrix(-1 0 0 1 239 237) translate(0 45)"/>
                        <path fill="#10707D" d="M12.748 50.06L13.62 69.648 12.614 70.145 12.575 70.137 11.066 47.904 12.653 47.942z" transform="translate(-708 -869) translate(708 632) matrix(-1 0 0 1 239 237) translate(0 45)"/>
                        <path fill="#12698A" d="M102.67 40.205L103 70.946 34.885 71 34.05 40.205z" transform="translate(-708 -869) translate(708 632) matrix(-1 0 0 1 239 237) translate(0 45)"/>
                        <path fill="#0E5378" d="M102.708 13.169L103 40.205 34.289 40.205 33.198 0.855 102.578 1.133 102.693 11.827z" transform="translate(-708 -869) translate(708 632) matrix(-1 0 0 1 239 237) translate(0 45)"/>
                        <path fill="#127C93" d="M102.133 0L102.149 1.711 32.37 1.381 32.347 0z" transform="translate(-708 -869) translate(708 632) matrix(-1 0 0 1 239 237) translate(0 45)"/>
                        <path fill="#105E80" d="M12.767 47.553l-1.554-.038 1.491 22.192-8.24-.519-1.91-28.983h31.5L34.901 71l-11.145-.658v-.72l-.054-3.446-.295-18.437-10.64-.186zm19.245 17.268l-.443-15.797h-5.957l.598 15.448 5.802.349zm-21.436-.318l-1.08-15.479H5.203l.893 15.162 4.481.317z" transform="translate(-708 -869) translate(708 632) matrix(-1 0 0 1 239 237) translate(0 45)"/>
                        <path fill="#09507A" d="M32.949 0.986L34.05 40.205 2.595 40.205 0.635 10.452 0 0.855z" transform="translate(-708 -869) translate(708 632) matrix(-1 0 0 1 239 237) translate(0 45)"/>
                        <path fill="#127C93" d="M32.324 0L32.347.855.068.759 0 0zM5.784 49.614L5.107 47.476 6.532 47.148 6.276 45.337 9.047 45.337 8.698 47.141 10.215 47.476 9.723 49.614z" transform="translate(-708 -869) translate(708 632) matrix(-1 0 0 1 239 237) translate(0 45)"/>
                        <path fill="#117D8C" d="M8.474 45.337L7.699 48.759 8.142 45.337zM6.363 47.048L6.601 48.759 6.167 47.097z" transform="translate(-708 -869) translate(708 632) matrix(-1 0 0 1 239 237) translate(0 45)"/>
                        <path fill="#127C93" d="M25.705 49.614L24.686 47.476 26.825 47.148 26.436 45.337 30.597 45.337 30.068 47.141 32.347 47.476 31.6 49.614z" transform="translate(-708 -869) translate(708 632) matrix(-1 0 0 1 239 237) translate(0 45)"/>
                        <path fill="#117D8C" d="M30.645 45.337L29.793 48.759 30.28 45.337zM26.789 47.048L27.112 48.759 26.516 47.097z" transform="translate(-708 -869) translate(708 632) matrix(-1 0 0 1 239 237) translate(0 45)"/>
                        <path fill="#003556" d="M56.174 50.47l-.14 4.518h-4.662l.062-4.518h4.748-.008zm-10.932 0l.155 4.518H51.1l.062-4.518h-5.92zm-.132 0h-4.25l.155 4.774v-.249h4.126l-.156-4.518.125-.007zm-4.095 4.774l.334 10.623h4.165l-.365-10.639-4.134.016zm4.398 0l.365 10.623h5.182l.14-10.639-5.687.016zm5.951 0l-.14 10.623h4.46l.335-10.639-4.655.016z" transform="translate(-708 -869) translate(708 632) matrix(-1 0 0 1 239 237) translate(0 45)"/>
                        <path fill="#10707D" d="M46.209 45.337L46.818 49.614 46.653 49.614 46.154 46.463 45.967 45.337zM51.926 46.25L51.223 49.614 51.074 49.614 51.67 46.193z" transform="translate(-708 -869) translate(708 632) matrix(-1 0 0 1 239 237) translate(0 45)"/>
                        <path fill="#127C93" d="M57.884 47.455L57.055 49.614 51.074 49.614 51.879 46.193zM46.144 46.193L46.818 49.614 40.631 49.614 40.008 47.827z" transform="translate(-708 -869) translate(708 632) matrix(-1 0 0 1 239 237) translate(0 45)"/>
                        <path fill="#127C93" d="M45.967 45.337L51.074 45.337 50.853 46.492 50.253 49.614 46.76 49.614z" transform="translate(-708 -869) translate(708 632) matrix(-1 0 0 1 239 237) translate(0 45)"/>
                        <path fill="#055F7B" d="M50.834 54.991L55.331 54.991 55.316 55.239 50.834 55.239 50.699 65.867 50.445 65.867 50.579 55.239 45.102 55.239 45.461 65.867 45.199 65.867 44.848 55.239 40.867 55.239 40.86 54.991 44.833 54.991 44.683 50.47 44.81 50.47 44.937 50.47 45.087 54.991 50.579 54.991 50.639 50.47 50.766 50.47 50.893 50.47z" transform="translate(-708 -869) translate(708 632) matrix(-1 0 0 1 239 237) translate(0 45)"/>
                        <path fill="#055F7B" d="M55.508 54.848l.138-4.715H40.545l.153 4.983.33 11.08h14.135l.33-11.104.015-.244zm.674-5.234l-.514 17.109H40.522l-.514-17.109h16.174z" transform="translate(-708 -869) translate(708 632) matrix(-1 0 0 1 239 237) translate(0 45)"/>
                        <path fill="#003556" d="M76.612 50.47l-.148 4.518h-4.662l.054-4.518h4.756zm-10.933 0l.156 4.518h5.703l.054-4.518H65.68zm-.132 0H61.29l.156 4.774v-.249h4.133l-.155-4.518.124-.007zm-4.063 4.774l.303 10.623h4.164l-.373-10.639-4.094.016zm4.397 0l.334 10.623h5.183l.14-10.639-5.657.016zm5.96 0l-.179 10.623h4.452l.342-10.639-4.615.016z" transform="translate(-708 -869) translate(708 632) matrix(-1 0 0 1 239 237) translate(0 45)"/>
                        <path fill="#10707D" d="M66.633 45.337L67.248 49.614 67.083 49.614 66.583 46.463 66.397 45.337zM72.355 46.25L71.659 49.614 71.504 49.614 72.102 46.193z" transform="translate(-708 -869) translate(708 632) matrix(-1 0 0 1 239 237) translate(0 45)"/>
                        <path fill="#127C93" d="M78.314 47.455L77.492 49.614 71.504 49.614 72.31 46.193zM66.574 46.193L67.248 49.614 61.06 49.614 60.438 47.827z" transform="translate(-708 -869) translate(708 632) matrix(-1 0 0 1 239 237) translate(0 45)"/>
                        <path fill="#127C93" d="M66.397 45.337L71.504 45.337 71.283 46.492 70.677 49.614 67.196 49.614z" transform="translate(-708 -869) translate(708 632) matrix(-1 0 0 1 239 237) translate(0 45)"/>
                        <path fill="#055F7B" d="M71.271 54.991L75.76 54.991 75.753 55.239 71.271 55.239 71.136 65.867 70.874 65.867 71.016 55.239 65.532 55.239 65.891 65.867 65.637 65.867 65.277 55.239 61.297 55.239 61.289 54.991 65.27 54.991 65.12 50.47 65.247 50.47 65.375 50.47 65.524 54.991 71.016 54.991 71.069 50.47 71.196 50.47 71.331 50.47z" transform="translate(-708 -869) translate(708 632) matrix(-1 0 0 1 239 237) translate(0 45)"/>
                        <path fill="#055F7B" d="M75.93 54.848l.146-4.715H60.974l.153 4.983.337 11.08h14.121l.337-11.104.008-.244zm.682-5.234l-.521 17.109H60.959l-.521-17.109h16.174z" transform="translate(-708 -869) translate(708 632) matrix(-1 0 0 1 239 237) translate(0 45)"/>
                        <path fill="#7DE213" d="M97.041 50.47l-.14 4.518h-4.664l.054-4.518h4.75zm-10.938 0l.164 4.518h5.706l.054-4.518h-5.924zm-.132 0H81.72l.155 4.774v-.249h4.136l-.163-4.518.124-.007zm-4.097 4.774l.335 10.623h4.174l-.373-10.639-4.136.016zm4.4 0l.374 10.623h5.177l.148-10.639-5.698.016zm5.963 0l-.148 10.623h4.463l.342-10.639-4.657.016z" transform="translate(-708 -869) translate(708 632) matrix(-1 0 0 1 239 237) translate(0 45)"/>
                        <path fill="#10707D" d="M87.064 45.337L87.678 49.614 87.512 49.614 87.014 46.463 86.826 45.337zM92.785 46.25L92.09 49.614 91.934 49.614 92.53 46.193z" transform="translate(-708 -869) translate(708 632) matrix(-1 0 0 1 239 237) translate(0 45)"/>
                        <path fill="#127C93" d="M98.744 47.455L97.914 49.614 91.934 49.614 92.731 46.193zM87.011 46.193L87.678 49.614 81.49 49.614 80.868 47.827z" transform="translate(-708 -869) translate(708 632) matrix(-1 0 0 1 239 237) translate(0 45)"/>
                        <path fill="#127C93" d="M86.826 45.337L91.934 45.337 91.706 46.492 91.106 49.614 87.618 49.614z" transform="translate(-708 -869) translate(708 632) matrix(-1 0 0 1 239 237) translate(0 45)"/>
                        <path fill="#055F7B" d="M91.701 54.991L96.19 54.991 96.183 55.239 91.701 55.239 91.558 65.867 91.304 65.867 91.446 55.239 85.962 55.239 86.321 65.867 86.066 65.867 85.707 55.239 81.726 55.239 81.719 54.991 85.7 54.991 85.543 50.47 85.67 50.47 85.797 50.47 85.954 54.991 91.446 54.991 91.499 50.47 91.626 50.47 91.753 50.47z" transform="translate(-708 -869) translate(708 632) matrix(-1 0 0 1 239 237) translate(0 45)"/>
                        <path fill="#055F7B" d="M96.367 54.848l.138-4.715h-15.1l.152 4.983.33 11.08h14.135l.337-11.104.008-.244zm.674-5.234l-.513 17.109H81.381l-.513-17.109H97.04z" transform="translate(-708 -869) translate(708 632) matrix(-1 0 0 1 239 237) translate(0 45)"/>
                        <path fill="#0F7182" d="M21.063 41.06c3.665 3.59 5.595 8.579 5.295 13.687l-11.65-.399s-1.928-2.513-2.79-3.762c2.75-3.446 5.81-6.635 9.145-9.526z" style="mix-blend-mode:multiply" transform="translate(-708 -869) translate(708 632) matrix(-1 0 0 1 239 237) translate(0 45)"/>
                        <path fill="#128966" d="M19.082 50.47L8.94 50.285c-1.48-7.275.787-12.115 8.37-13.502.706.277 1.384.617 2.024 1.017 1.543 4.105 1.453 8.627-.252 12.67z" transform="translate(-708 -869) translate(708 632) matrix(-1 0 0 1 239 237) translate(0 45)"/>
                        <path fill="#127171" d="M18.727 51.225c1.63-4.063 1.715-8.606.241-12.731 4.249 2.774 4.867 7.555 4.867 12.831l-5.108-.1zM10.594 49.614s-.054-.184-.132-.528c-.106-.48-.177-.967-.21-1.458-.277-3.34 1.014-6.614 3.474-8.812.36-.328.742-.627 1.145-.897l.451-.28-.42.328c-.375.3-.729.627-1.06.977-1.103 1.148-1.974 2.51-2.562 4.006-.582 1.489-.875 3.08-.865 4.686.005.487.039.974.102 1.458l.077.52zM15.479 48.759s-.09-.58-.136-1.508c-.057-1.24.004-2.483.181-3.711.188-1.224.489-2.429.897-3.598.176-.493.378-.976.604-1.448 0 0-.181.558-.415 1.508-.617 2.376-.976 4.811-1.07 7.264-.061.912-.061 1.493-.061 1.493z" transform="translate(-708 -869) translate(708 632) matrix(-1 0 0 1 239 237) translate(0 45)"/>
                        <path fill="#127C93" d="M9.964 13.996s1.145-6.373 5.803-6.297c4.977.077 6.761 6.297 6.761 6.297l.92 21.932H11.762l-1.8-21.932zM4.978 35.928h4.199L7.689 15.566H3.405l1.573 20.362zm20.783 0h4.884l-.982-20.362h-4.938l1.036 20.362z" transform="translate(-708 -869) translate(708 632) matrix(-1 0 0 1 239 237) translate(0 45)"/>
                        <path fill="#7DE213" d="M12.36 35.072l-1.74-21.514c.129-.613 1.3-5.86 5.093-5.86h.069c4.204.07 5.937 5.362 6.082 5.914l.882 21.445-10.385.015zm-3.535 0L7.442 15.611H4.256l1.46 19.461h3.11zm20.968 0l-.912-19.461H25.08l.958 19.461h3.755z" transform="translate(-708 -869) translate(708 632) matrix(-1 0 0 1 239 237) translate(0 45)"/>
                        <path fill="#127C93" d="M22.762 24.527v-.187H19.46l-.16-4.61h3.25v-.381h-3.243l-.168-4.75v-.414h3.212v-.382h-3.342c-.12-.644-.356-1.26-.694-1.817l1.457-3.12-.312-.312-1.427 3.058c-.396-.456-.936-.754-1.526-.843-.506-.063-1.015.099-1.396.445-.129.117-.241.25-.336.398l-1.785-2.91-.252.312 1.854 2.972c-.226.578-.343 1.195-.343 1.817h-3.182v.382h3.174v.063h.053l.367 5.1H11.5v.383h3.166l.328 4.61h-3.097v.381h3.135l.336 4.68-3.052-.101v.382l3.052.101.374 5.288h.374l-.374-5.264 3.533.117.183 5.14h.366l-.153-5.14 3.311.109v-.382l-3.31-.11-.214-4.82h3.273l.03-.195zm-8.14-10.724c-.073-.842.204-1.677.762-2.3.301-.278.705-.406 1.107-.352.584.092 1.105.425 1.442.92.34.524.57 1.114.679 1.732h-3.99zm.404 5.546l-.359-5.164h4.029c0 .117 0 .234.06.344l.169 4.82h-3.9zm.358 4.991l-.328-4.61h3.891l.16 4.61h-3.723zm.359 5.07l-.336-4.68h3.708l.168 4.805-3.54-.125zM29.778 29.97L28.046 29.97 27.744 25.579 29.582 25.703 29.567 25.324 27.722 25.2 27.39 20.407 29.341 20.407 29.319 20.028 27.36 20.028 27.044 15.398 26.863 15.398 26.675 15.413 26.999 20.028 25.537 20.028 25.552 20.407 27.021 20.407 27.353 25.177 25.778 25.068 25.801 25.448 27.375 25.556 27.677 29.97 26.019 29.97 26.034 30.349 27.707 30.349 28.031 35.072 28.211 35.072 28.4 35.065 28.076 30.349 29.793 30.349zM6.931 30.434L8.512 30.434 8.479 30.055 6.898 30.055 6.566 25.641 8.148 25.734 8.123 25.355 6.542 25.262 6.177 20.43 7.742 20.43 7.717 20.059 6.144 20.059 5.796 15.398 5.598 15.398 5.391 15.413 5.747 20.059 4.256 20.059 4.289 20.43 5.772 20.43 6.136 25.231 4.67 25.146 4.703 25.525 6.161 25.61 6.492 30.055 5.068 30.055 5.101 30.434 6.525 30.434 6.873 35.072 7.279 35.072zM46.178 35.928L38.954 35.928 38.306 16.253 46.818 16.253z" transform="translate(-708 -869) translate(708 632) matrix(-1 0 0 1 239 237) translate(0 45)"/>
                        <path fill="#003556" d="M38.932 35.928L38.306 17.108 45.967 17.108 45.349 35.928z" transform="translate(-708 -869) translate(708 632) matrix(-1 0 0 1 239 237) translate(0 45)"/>
                        <path fill="#127C93" d="M38.306 26.544L45.967 26.578 45.967 27.348 38.306 27.348z" transform="translate(-708 -869) translate(708 632) matrix(-1 0 0 1 239 237) translate(0 45)"/>
                        <path fill="#127C93" d="M42.435 16.253H43.435V35.928H42.435z" transform="translate(-708 -869) translate(708 632) matrix(-1 0 0 1 239 237) translate(0 45)"/>
                        <path fill="#127C93" d="M45.96 32.365L39.157 32.091 39.164 31.792 45.967 32.057zM38.306 21.25H45.967V22.25H38.306zM46.818 14.754c-2.97-1.485-6.108-1.36-9.363 0v1.499h9.363v-1.499zM58.947 35.928L51.722 35.928 51.074 16.253 59.587 16.253z" transform="translate(-708 -869) translate(708 632) matrix(-1 0 0 1 239 237) translate(0 45)"/>
                        <path fill="#003556" d="M52.552 35.928L51.926 17.108 59.587 17.108 58.969 35.928z" transform="translate(-708 -869) translate(708 632) matrix(-1 0 0 1 239 237) translate(0 45)"/>
                        <path fill="#127C93" d="M51.926 26.544L59.587 26.578 59.587 27.348 51.926 27.348z" transform="translate(-708 -869) translate(708 632) matrix(-1 0 0 1 239 237) translate(0 45)"/>
                        <path fill="#127C93" d="M55.204 16.253H56.204V35.928H55.204z" transform="translate(-708 -869) translate(708 632) matrix(-1 0 0 1 239 237) translate(0 45)"/>
                        <path fill="#127C93" d="M58.728 32.365L51.926 32.091 51.94 31.792 58.736 32.057zM51.926 21.25H59.587V22.25H51.926zM60.438 14.754c-2.979-1.485-6.108-1.36-9.364 0v1.499h9.364v-1.499zM71.715 35.928L64.483 35.928 63.843 16.253 72.355 16.253z" transform="translate(-708 -869) translate(708 632) matrix(-1 0 0 1 239 237) translate(0 45)"/>
                        <path fill="#7DE213" d="M65.32 35.928L64.694 17.108 72.355 17.108 71.737 35.928z" transform="translate(-708 -869) translate(708 632) matrix(-1 0 0 1 239 237) translate(0 45)"/>
                        <path fill="#127C93" d="M64.694 26.544L72.355 26.578 72.355 27.348 64.694 27.348z" transform="translate(-708 -869) translate(708 632) matrix(-1 0 0 1 239 237) translate(0 45)"/>
                        <path fill="#127C93" d="M67.972 16.253H68.972V35.928H67.972z" transform="translate(-708 -869) translate(708 632) matrix(-1 0 0 1 239 237) translate(0 45)"/>
                        <path fill="#127C93" d="M71.497 32.365L64.694 32.091 64.702 31.792 71.504 32.057zM64.694 21.25H72.355V22.25H64.694zM73.207 14.754c-3.005-1.485-6.129-1.36-9.364 0v1.499h9.364v-1.499zM84.484 35.928L77.252 35.928 76.612 16.253 85.124 16.253z" transform="translate(-708 -869) translate(708 632) matrix(-1 0 0 1 239 237) translate(0 45)"/>
                        <path fill="#7DE213" d="M78.089 35.928L77.463 17.108 85.124 17.108 84.506 35.928z" transform="translate(-708 -869) translate(708 632) matrix(-1 0 0 1 239 237) translate(0 45)"/>
                        <path fill="#127C93" d="M77.463 26.544L85.124 26.578 85.124 27.348 77.463 27.348z" transform="translate(-708 -869) translate(708 632) matrix(-1 0 0 1 239 237) translate(0 45)"/>
                        <path fill="#127C93" d="M80.741 16.253H81.741V35.928H80.741z" transform="translate(-708 -869) translate(708 632) matrix(-1 0 0 1 239 237) translate(0 45)"/>
                        <path fill="#127C93" d="M84.265 32.365L77.463 32.091 77.47 31.792 84.273 32.057zM77.463 21.25H85.124V22.25H77.463zM85.975 14.754c-2.978-1.485-6.108-1.36-9.363 0v1.499h9.363v-1.499zM98.104 35.928L90.872 35.928 90.231 16.253 98.744 16.253z" transform="translate(-708 -869) translate(708 632) matrix(-1 0 0 1 239 237) translate(0 45)"/>
                        <path fill="#003556" d="M90.857 35.928L90.231 17.108 97.893 17.108 97.267 35.928z" transform="translate(-708 -869) translate(708 632) matrix(-1 0 0 1 239 237) translate(0 45)"/>
                        <path fill="#127C93" d="M90.231 26.544L97.893 26.578 97.893 27.348 90.231 27.348z" transform="translate(-708 -869) translate(708 632) matrix(-1 0 0 1 239 237) translate(0 45)"/>
                        <path fill="#127C93" d="M94.361 16.253H95.361V35.928H94.361z" transform="translate(-708 -869) translate(708 632) matrix(-1 0 0 1 239 237) translate(0 45)"/>
                        <path fill="#127C93" d="M97.885 32.365L91.083 32.091 91.09 31.792 97.893 32.057zM90.231 21.25H97.892V22.25H90.231zM98.744 14.754c-2.979-1.485-6.108-1.36-9.364 0v1.499h9.364v-1.499zM32.347 7.699L102.033 7.699 102.149 9.41 32.378 9.058z" transform="translate(-708 -869) translate(708 632) matrix(-1 0 0 1 239 237) translate(0 45)"/>
                        <path fill="#127C93" d="M33.198 8.263h-9.06s-2.725-4.191-7.532-4.191c-4.806 0-6.549 4.482-6.549 4.482H.851v-.65h8.815c1.173-2.705 3.892-4.468 6.91-4.482 3.08.006 5.978 1.416 7.831 3.81h8.768l.023 1.03z" transform="translate(-708 -869) translate(708 632) matrix(-1 0 0 1 239 237) translate(0 45)"/>
                        <path fill="#0F7182" style="mix-blend-mode:multiply" d="M82.907 27.373L82.57 34.217 90.231 34.091 90.231 32.554 84.763 32.554z" transform="translate(-708 -869) translate(708 632) matrix(-1 0 0 1 239 237) translate(0 45)"/>
                        <path fill="#015F79" d="M87.243 28.229c-.264.38-.406.83-.41 1.293-.009.139-.009.279 0 .418l1.515-.21c-.01-.069-.01-.14 0-.208-.002-.179.063-.351.18-.485l-1.285-.808zM88.917 30.17l-.388 1.416c.145.045.296.066.447.064.457.003.902-.17 1.255-.487l-.767-1.223c-.123.153-.301.24-.488.239l-.06-.01zM88.533 29.518c-.005.04-.005.083 0 .124.05.164.198.282.372.298h.04c.127 0 .248-.053.332-.147.067-.079.103-.178.103-.28.005-.116-.04-.227-.122-.308-.083-.082-.196-.125-.313-.12h-.04c-.108.01-.208.06-.28.14-.067.083-.1.188-.092.293z" transform="translate(-708 -869) translate(708 632) matrix(-1 0 0 1 239 237) translate(0 45)"/>
                        <path fill="#015F79" d="M88.529 28.229v1.48h.066c.206.002.402.085.545.23l1.091-.97c-.421-.45-1.015-.704-1.636-.703l-.066-.037z" transform="translate(-708 -869) translate(708 632) matrix(-1 0 0 1 239 237) translate(0 45)"/>
                        <path fill="#005371" d="M88.03 29.94l-1.204.182c.137.756.667 1.355 1.355 1.529l.348-1.273c-.23-.023-.425-.196-.492-.438h-.007zM89.38 29.024c.113.11.175.245.175.386 0 .138-.062.272-.175.378l.882 1.007c.475-.311.769-.76.814-1.243.046-.483-.16-.96-.572-1.323l-1.124.795zM89.38 28.229c-.68.022-1.31.364-1.702.925l1.254.786c.115-.132.275-.215.448-.231v-1.48z" transform="translate(-708 -869) translate(708 632) matrix(-1 0 0 1 239 237) translate(0 45)"/>
                        <path fill="#117D8C" d="M91.757 32.506H85.3l-.177-5.133h6.81l-.177 5.133zm-2.369-.733c.705.013 1.348-.398 1.63-1.04.28-.642.144-1.39-.346-1.893-.33-.356-.796-.558-1.284-.557h-.051c-.548.017-1.056.288-1.372.733-.205.293-.316.64-.318.997-.007.107-.007.215 0 .323.133.67.65 1.202 1.32 1.356.127.056.262.093.4.11l.021-.03z" transform="translate(-708 -869) translate(708 632) matrix(-1 0 0 1 239 237) translate(0 45)"/>
                        <path fill="#10707D" d="M82.57 27.373L83.019 32.506 84.273 32.506 84.112 27.373z" transform="translate(-708 -869) translate(708 632) matrix(-1 0 0 1 239 237) translate(0 45)"/>
                    </g>
                </g>
            </g>
        </g>
    </g>
</svg>
